vcd/tbCover_top.vcd
$version Generated by VerilatedVcd $end
$timescale 1ns $end
 $scope module tbCover_top $end
  $var wire 1 a clk $end
  $var wire 1 b rst $end
  $var wire 32 M! WIDTH [31:0] $end
  $var wire 32 N! CLK_PERIOD [31:0] $end
  $var wire 32 O! MAX_INSTRUCTIONS [31:0] $end
  $var wire 32 " NUM_INSTRUCTIONS [31:0] $end
  $var wire 32 # i [31:0] $end
  $var wire 32 c if_pc_pp [31:0] $end
  $var wire 32 d if_inst [31:0] $end
  $var wire 32 - if_id_pcIncr [31:0] $end
  $var wire 32 . if_id_inst [31:0] $end
  $var wire 5 / id_regT [4:0] $end
  $var wire 5 % id_regD [4:0] $end
  $var wire 5 0 id_regS [4:0] $end
  $var wire 5 & id_exCtrl [4:0] $end
  $var wire 4 ' id_memCtrl [3:0] $end
  $var wire 4 ( id_wbCtrl [3:0] $end
  $var wire 32 - id_pcIncr [31:0] $end
  $var wire 32 ) id_sgnExt [31:0] $end
  $var wire 32 e id_rdDataOne [31:0] $end
  $var wire 32 f id_rdDataTwo [31:0] $end
  $var wire 32 g reg_file_debug[0] [31:0] $end
  $var wire 32 h reg_file_debug[1] [31:0] $end
  $var wire 32 i reg_file_debug[2] [31:0] $end
  $var wire 32 j reg_file_debug[3] [31:0] $end
  $var wire 32 k reg_file_debug[4] [31:0] $end
  $var wire 32 l reg_file_debug[5] [31:0] $end
  $var wire 32 m reg_file_debug[6] [31:0] $end
  $var wire 32 n reg_file_debug[7] [31:0] $end
  $var wire 32 o reg_file_debug[8] [31:0] $end
  $var wire 32 p reg_file_debug[9] [31:0] $end
  $var wire 32 q reg_file_debug[10] [31:0] $end
  $var wire 32 r reg_file_debug[11] [31:0] $end
  $var wire 32 s reg_file_debug[12] [31:0] $end
  $var wire 32 t reg_file_debug[13] [31:0] $end
  $var wire 32 u reg_file_debug[14] [31:0] $end
  $var wire 32 v reg_file_debug[15] [31:0] $end
  $var wire 32 w reg_file_debug[16] [31:0] $end
  $var wire 32 x reg_file_debug[17] [31:0] $end
  $var wire 32 y reg_file_debug[18] [31:0] $end
  $var wire 32 z reg_file_debug[19] [31:0] $end
  $var wire 32 { reg_file_debug[20] [31:0] $end
  $var wire 32 | reg_file_debug[21] [31:0] $end
  $var wire 32 } reg_file_debug[22] [31:0] $end
  $var wire 32 ~ reg_file_debug[23] [31:0] $end
  $var wire 32 !! reg_file_debug[24] [31:0] $end
  $var wire 32 "! reg_file_debug[25] [31:0] $end
  $var wire 32 #! reg_file_debug[26] [31:0] $end
  $var wire 32 $! reg_file_debug[27] [31:0] $end
  $var wire 32 %! reg_file_debug[28] [31:0] $end
  $var wire 32 &! reg_file_debug[29] [31:0] $end
  $var wire 32 '! reg_file_debug[30] [31:0] $end
  $var wire 32 (! reg_file_debug[31] [31:0] $end
  $var wire 1 * id_PCJmp $end
  $var wire 32 )! id_jump_addr [31:0] $end
  $var wire 5 1 id_shamt_out [4:0] $end
  $var wire 1 2 if_id_write $end
  $var wire 1 3 PCWrite $end
  $var wire 5 4 id_ex_regT [4:0] $end
  $var wire 5 5 id_ex_regD [4:0] $end
  $var wire 5 6 id_ex_regS [4:0] $end
  $var wire 5 7 id_ex_shamt_out [4:0] $end
  $var wire 5 8 id_ex_exCtrl [4:0] $end
  $var wire 4 9 id_ex_memCtrl [3:0] $end
  $var wire 4 : id_ex_wbCtrl [3:0] $end
  $var wire 32 ; id_ex_pcIncr [31:0] $end
  $var wire 32 < id_ex_sgnExt [31:0] $end
  $var wire 32 = id_ex_rdDataOne [31:0] $end
  $var wire 32 > id_ex_rdDataTwo [31:0] $end
  $var wire 5 ? ex_regDst [4:0] $end
  $var wire 4 9 ex_memCtrl [3:0] $end
  $var wire 4 : ex_wbCtrl [3:0] $end
  $var wire 1 @ ex_zeroFlag $end
  $var wire 1 A ex_overflowFlag $end
  $var wire 32 B ex_aluResult [31:0] $end
  $var wire 32 > ex_rdDataTwo [31:0] $end
  $var wire 32 C ex_pcAdd [31:0] $end
  $var wire 5 D ex_mem_regDst [4:0] $end
  $var wire 4 E ex_mem_memCtrl [3:0] $end
  $var wire 4 F ex_mem_wbCtrl [3:0] $end
  $var wire 1 G ex_mem_zeroFlag $end
  $var wire 32 H ex_mem_aluResult [31:0] $end
  $var wire 32 I ex_mem_rdDataTwo [31:0] $end
  $var wire 32 J ex_mem_pcAdd [31:0] $end
  $var wire 1 K mem_branchFlag $end
  $var wire 32 J mem_branchAddr [31:0] $end
  $var wire 4 F mem_wbCtrl [3:0] $end
  $var wire 5 D mem_regDst [4:0] $end
  $var wire 32 *! mem_memReadData [31:0] $end
  $var wire 32 H mem_aluResult [31:0] $end
  $var wire 4 L mem_wb_wbCtrl [3:0] $end
  $var wire 5 M mem_wb_regDst [4:0] $end
  $var wire 32 N mem_wb_memReadData [31:0] $end
  $var wire 32 O mem_wb_aluResult [31:0] $end
  $var wire 1 P wb_regWrite $end
  $var wire 5 M wb_regDst [4:0] $end
  $var wire 32 Q wb_regData [31:0] $end
  $scope module top_00 $end
   $var wire 32 M! WIDTH [31:0] $end
   $var wire 32 O! MAX_INSTRUCTIONS [31:0] $end
   $var wire 1 a clk $end
   $var wire 1 b rst $end
   $var wire 32 c if_pc_pp [31:0] $end
   $var wire 32 d if_inst [31:0] $end
   $var wire 32 - if_id_pcIncr [31:0] $end
   $var wire 32 . if_id_inst [31:0] $end
   $var wire 5 / id_regT [4:0] $end
   $var wire 5 % id_regD [4:0] $end
   $var wire 5 0 id_regS [4:0] $end
   $var wire 5 1 id_shamt_out [4:0] $end
   $var wire 5 & id_exCtrl [4:0] $end
   $var wire 4 ' id_memCtrl [3:0] $end
   $var wire 4 ( id_wbCtrl [3:0] $end
   $var wire 32 - id_pcIncr [31:0] $end
   $var wire 32 ) id_sgnExt [31:0] $end
   $var wire 32 e id_rdDataOne [31:0] $end
   $var wire 32 f id_rdDataTwo [31:0] $end
   $var wire 32 )! jump_addr [31:0] $end
   $var wire 32 g reg_file_debug[0] [31:0] $end
   $var wire 32 h reg_file_debug[1] [31:0] $end
   $var wire 32 i reg_file_debug[2] [31:0] $end
   $var wire 32 j reg_file_debug[3] [31:0] $end
   $var wire 32 k reg_file_debug[4] [31:0] $end
   $var wire 32 l reg_file_debug[5] [31:0] $end
   $var wire 32 m reg_file_debug[6] [31:0] $end
   $var wire 32 n reg_file_debug[7] [31:0] $end
   $var wire 32 o reg_file_debug[8] [31:0] $end
   $var wire 32 p reg_file_debug[9] [31:0] $end
   $var wire 32 q reg_file_debug[10] [31:0] $end
   $var wire 32 r reg_file_debug[11] [31:0] $end
   $var wire 32 s reg_file_debug[12] [31:0] $end
   $var wire 32 t reg_file_debug[13] [31:0] $end
   $var wire 32 u reg_file_debug[14] [31:0] $end
   $var wire 32 v reg_file_debug[15] [31:0] $end
   $var wire 32 w reg_file_debug[16] [31:0] $end
   $var wire 32 x reg_file_debug[17] [31:0] $end
   $var wire 32 y reg_file_debug[18] [31:0] $end
   $var wire 32 z reg_file_debug[19] [31:0] $end
   $var wire 32 { reg_file_debug[20] [31:0] $end
   $var wire 32 | reg_file_debug[21] [31:0] $end
   $var wire 32 } reg_file_debug[22] [31:0] $end
   $var wire 32 ~ reg_file_debug[23] [31:0] $end
   $var wire 32 !! reg_file_debug[24] [31:0] $end
   $var wire 32 "! reg_file_debug[25] [31:0] $end
   $var wire 32 #! reg_file_debug[26] [31:0] $end
   $var wire 32 $! reg_file_debug[27] [31:0] $end
   $var wire 32 %! reg_file_debug[28] [31:0] $end
   $var wire 32 &! reg_file_debug[29] [31:0] $end
   $var wire 32 '! reg_file_debug[30] [31:0] $end
   $var wire 32 (! reg_file_debug[31] [31:0] $end
   $var wire 1 * id_PCJmp $end
   $var wire 1 3 PCWrite $end
   $var wire 1 2 if_id_write $end
   $var wire 5 4 id_ex_regT [4:0] $end
   $var wire 5 5 id_ex_regD [4:0] $end
   $var wire 5 6 id_ex_regS [4:0] $end
   $var wire 5 7 id_ex_shamt_out [4:0] $end
   $var wire 5 8 id_ex_exCtrl [4:0] $end
   $var wire 4 9 id_ex_memCtrl [3:0] $end
   $var wire 4 : id_ex_wbCtrl [3:0] $end
   $var wire 32 ; id_ex_pcIncr [31:0] $end
   $var wire 32 < id_ex_sgnExt [31:0] $end
   $var wire 32 = id_ex_rdDataOne [31:0] $end
   $var wire 32 > id_ex_rdDataTwo [31:0] $end
   $var wire 5 ? ex_regDst [4:0] $end
   $var wire 4 9 ex_memCtrl [3:0] $end
   $var wire 4 : ex_wbCtrl [3:0] $end
   $var wire 1 @ ex_zeroFlag $end
   $var wire 1 A ex_overflowFlag $end
   $var wire 32 B ex_aluResult [31:0] $end
   $var wire 32 > ex_rdDataTwo [31:0] $end
   $var wire 32 C ex_pcAdd [31:0] $end
   $var wire 5 D ex_mem_regDst [4:0] $end
   $var wire 4 E ex_mem_memCtrl [3:0] $end
   $var wire 4 F ex_mem_wbCtrl [3:0] $end
   $var wire 1 G ex_mem_zeroFlag $end
   $var wire 32 H ex_mem_aluResult [31:0] $end
   $var wire 32 I ex_mem_rdDataTwo [31:0] $end
   $var wire 32 J ex_mem_pcAdd [31:0] $end
   $var wire 1 K mem_branchFlag $end
   $var wire 32 J mem_branchAddr [31:0] $end
   $var wire 4 F mem_wbCtrl [3:0] $end
   $var wire 5 D mem_regDst [4:0] $end
   $var wire 32 *! mem_memReadData [31:0] $end
   $var wire 32 H mem_aluResult [31:0] $end
   $var wire 4 L mem_wb_wbCtrl [3:0] $end
   $var wire 5 M mem_wb_regDst [4:0] $end
   $var wire 32 N mem_wb_memReadData [31:0] $end
   $var wire 32 O mem_wb_aluResult [31:0] $end
   $var wire 1 P wb_regWrite $end
   $var wire 5 M wb_regDst [4:0] $end
   $var wire 32 Q wb_regData [31:0] $end
   $scope module ex_top $end
    $var wire 32 M! WIDTH [31:0] $end
    $var wire 5 8 ex_ctrl [4:0] $end
    $var wire 5 7 shamt_out [4:0] $end
    $var wire 4 9 mem_ctrl_in [3:0] $end
    $var wire 4 : wb_ctrl_in [3:0] $end
    $var wire 32 ; pc_incr_in [31:0] $end
    $var wire 32 < sgn_extend_out [31:0] $end
    $var wire 32 = rd_data_one [31:0] $end
    $var wire 32 > rd_data_two_in [31:0] $end
    $var wire 5 5 rd_out [4:0] $end
    $var wire 5 4 rt_out [4:0] $end
    $var wire 5 6 rs_out [4:0] $end
    $var wire 1 R ex_mem_RegWrite $end
    $var wire 1 P mem_wb_RegWrite $end
    $var wire 5 D ex_mem_regRd [4:0] $end
    $var wire 5 M mem_wb_regRd [4:0] $end
    $var wire 32 H ex_mem_aluResult [31:0] $end
    $var wire 32 Q wb_regData [31:0] $end
    $var wire 4 9 mem_ctrl_out [3:0] $end
    $var wire 4 : wb_ctrl_out [3:0] $end
    $var wire 32 C pc_slt_add [31:0] $end
    $var wire 32 B alu_result [31:0] $end
    $var wire 32 > rd_data_two_out [31:0] $end
    $var wire 1 @ zero_flag $end
    $var wire 1 A overflow_flag $end
    $var wire 5 ? reg_dst_mux [4:0] $end
    $var wire 4 P! ALU_ADD [3:0] $end
    $var wire 4 Q! ALU_ADDU [3:0] $end
    $var wire 4 R! ALU_SUB [3:0] $end
    $var wire 4 S! ALU_SUBU [3:0] $end
    $var wire 4 T! ALU_MULT [3:0] $end
    $var wire 4 U! ALU_MULTU [3:0] $end
    $var wire 4 V! ALU_DIV [3:0] $end
    $var wire 4 W! ALU_DIVU [3:0] $end
    $var wire 4 X! ALU_AND [3:0] $end
    $var wire 4 Y! ALU_OR [3:0] $end
    $var wire 4 Z! ALU_NOR [3:0] $end
    $var wire 4 [! ALU_SLT [3:0] $end
    $var wire 4 \! ALU_SLTU [3:0] $end
    $var wire 4 ]! ALU_SLL [3:0] $end
    $var wire 4 ^! ALU_SRL [3:0] $end
    $var wire 2 S forwardA [1:0] $end
    $var wire 2 T forwardB [1:0] $end
    $var wire 4 U alu_ctrl [3:0] $end
    $var wire 32 V alu_in_a [31:0] $end
    $var wire 32 W alu_in_b [31:0] $end
    $scope module alu_00 $end
     $var wire 32 M! WIDTH [31:0] $end
     $var wire 4 P! ALU_ADD [3:0] $end
     $var wire 4 Q! ALU_ADDU [3:0] $end
     $var wire 4 R! ALU_SUB [3:0] $end
     $var wire 4 S! ALU_SUBU [3:0] $end
     $var wire 4 T! ALU_MULT [3:0] $end
     $var wire 4 U! ALU_MULTU [3:0] $end
     $var wire 4 V! ALU_DIV [3:0] $end
     $var wire 4 W! ALU_DIVU [3:0] $end
     $var wire 4 X! ALU_AND [3:0] $end
     $var wire 4 Y! ALU_OR [3:0] $end
     $var wire 4 Z! ALU_NOR [3:0] $end
     $var wire 4 [! ALU_SLT [3:0] $end
     $var wire 4 \! ALU_SLTU [3:0] $end
     $var wire 4 ^! ALU_SRL [3:0] $end
     $var wire 4 ]! ALU_SLL [3:0] $end
     $var wire 32 V in_a [31:0] $end
     $var wire 32 W in_b [31:0] $end
     $var wire 4 U alu_opcode [3:0] $end
     $var wire 5 7 shamt_out [4:0] $end
     $var wire 1 @ zero_flag $end
     $var wire 1 A overflow_flag $end
     $var wire 32 B alu_result [31:0] $end
     $var wire 33 X result_extended [32:0] $end
    $upscope $end
    $scope module fwd_00 $end
     $var wire 5 6 id_ex_regRs [4:0] $end
     $var wire 5 4 id_ex_regRt [4:0] $end
     $var wire 5 D ex_mem_regRd [4:0] $end
     $var wire 5 M mem_wb_regRd [4:0] $end
     $var wire 1 R ex_mem_RegWrite $end
     $var wire 1 P mem_wb_RegWrite $end
     $var wire 2 S forwardA [1:0] $end
     $var wire 2 T forwardB [1:0] $end
    $upscope $end
   $upscope $end
   $scope module id_top $end
    $var wire 32 M! WIDTH [31:0] $end
    $var wire 1 a clk $end
    $var wire 1 b rst $end
    $var wire 32 . if_out [31:0] $end
    $var wire 32 - pc_incr_in [31:0] $end
    $var wire 5 M wr_reg [4:0] $end
    $var wire 32 Q wr_data [31:0] $end
    $var wire 1 P RegWrite $end
    $var wire 1 Z id_ex_MemRead $end
    $var wire 5 4 id_ex_regRt [4:0] $end
    $var wire 5 & ex_ctrl [4:0] $end
    $var wire 4 ' mem_ctrl [3:0] $end
    $var wire 4 ( wb_ctrl [3:0] $end
    $var wire 32 - pc_incr_out [31:0] $end
    $var wire 32 ) sgn_extend_out [31:0] $end
    $var wire 32 )! jump_addr [31:0] $end
    $var wire 32 e rd_data_one [31:0] $end
    $var wire 32 f rd_data_two [31:0] $end
    $var wire 5 % rd_out [4:0] $end
    $var wire 5 / rt_out [4:0] $end
    $var wire 5 0 rs_out [4:0] $end
    $var wire 32 g register_file[0] [31:0] $end
    $var wire 32 h register_file[1] [31:0] $end
    $var wire 32 i register_file[2] [31:0] $end
    $var wire 32 j register_file[3] [31:0] $end
    $var wire 32 k register_file[4] [31:0] $end
    $var wire 32 l register_file[5] [31:0] $end
    $var wire 32 m register_file[6] [31:0] $end
    $var wire 32 n register_file[7] [31:0] $end
    $var wire 32 o register_file[8] [31:0] $end
    $var wire 32 p register_file[9] [31:0] $end
    $var wire 32 q register_file[10] [31:0] $end
    $var wire 32 r register_file[11] [31:0] $end
    $var wire 32 s register_file[12] [31:0] $end
    $var wire 32 t register_file[13] [31:0] $end
    $var wire 32 u register_file[14] [31:0] $end
    $var wire 32 v register_file[15] [31:0] $end
    $var wire 32 w register_file[16] [31:0] $end
    $var wire 32 x register_file[17] [31:0] $end
    $var wire 32 y register_file[18] [31:0] $end
    $var wire 32 z register_file[19] [31:0] $end
    $var wire 32 { register_file[20] [31:0] $end
    $var wire 32 | register_file[21] [31:0] $end
    $var wire 32 } register_file[22] [31:0] $end
    $var wire 32 ~ register_file[23] [31:0] $end
    $var wire 32 !! register_file[24] [31:0] $end
    $var wire 32 "! register_file[25] [31:0] $end
    $var wire 32 #! register_file[26] [31:0] $end
    $var wire 32 $! register_file[27] [31:0] $end
    $var wire 32 %! register_file[28] [31:0] $end
    $var wire 32 &! register_file[29] [31:0] $end
    $var wire 32 '! register_file[30] [31:0] $end
    $var wire 32 (! register_file[31] [31:0] $end
    $var wire 1 * PCJmp $end
    $var wire 5 1 shamt_out [4:0] $end
    $var wire 1 3 PCWrite $end
    $var wire 1 2 if_id_write $end
    $var wire 1 [ flushCtrlSignals $end
    $var wire 1 + linkReg $end
    $var wire 1 , signExtSel $end
    $var wire 32 +! i [31:0] $end
    $var wire 1 \ is_jr $end
    $var wire 1 ] is_j_type $end
    $scope module hzd_00 $end
     $var wire 1 Z id_ex_MemRead $end
     $var wire 5 4 id_ex_regRt [4:0] $end
     $var wire 5 0 if_id_regRs [4:0] $end
     $var wire 5 / if_id_regRt [4:0] $end
     $var wire 1 3 PCWrite $end
     $var wire 1 2 if_id_write $end
     $var wire 1 [ flushCtrlSignals $end
    $upscope $end
   $upscope $end
   $scope module if_top $end
    $var wire 32 M! WIDTH [31:0] $end
    $var wire 32 O! MAX_INSTRUCTIONS [31:0] $end
    $var wire 1 a clk $end
    $var wire 1 b rst $end
    $var wire 1 K PCSrc $end
    $var wire 1 * PCJmp $end
    $var wire 1 3 PCWrite $end
    $var wire 32 J pc_br [31:0] $end
    $var wire 32 )! jump_addr [31:0] $end
    $var wire 32 c pc_pp [31:0] $end
    $var wire 32 d inst_mem_out [31:0] $end
    $var wire 32 ,! pc [31:0] $end
   $upscope $end
   $scope module mem_top $end
    $var wire 32 M! WIDTH [31:0] $end
    $var wire 1 a clk $end
    $var wire 1 b rst $end
    $var wire 1 G zero_flag $end
    $var wire 4 E mem_ctrl [3:0] $end
    $var wire 4 F wb_ctrl_in [3:0] $end
    $var wire 32 H alu_result [31:0] $end
    $var wire 32 I rd_data_two_out [31:0] $end
    $var wire 32 J pc_slt_add [31:0] $end
    $var wire 5 D reg_dst_mux [4:0] $end
    $var wire 1 K branch_flag $end
    $var wire 32 *! mem_read_data [31:0] $end
    $var wire 32 J branch_addr [31:0] $end
    $var wire 32 H alu_result_out [31:0] $end
    $var wire 4 F wb_ctrl_out [3:0] $end
    $var wire 5 D wr_reg_dest_out [4:0] $end
    $scope module dmem_00 $end
     $var wire 32 M! WIDTH [31:0] $end
     $var wire 1 a clk $end
     $var wire 1 ^ wr_en $end
     $var wire 1 _ rd_en $end
     $var wire 32 H addr [31:0] $end
     $var wire 32 I wr_data [31:0] $end
     $var wire 32 *! rd_data [31:0] $end
     $var wire 32 -! data_memory[0] [31:0] $end
     $var wire 32 .! data_memory[1] [31:0] $end
     $var wire 32 /! data_memory[2] [31:0] $end
     $var wire 32 0! data_memory[3] [31:0] $end
     $var wire 32 1! data_memory[4] [31:0] $end
     $var wire 32 2! data_memory[5] [31:0] $end
     $var wire 32 3! data_memory[6] [31:0] $end
     $var wire 32 4! data_memory[7] [31:0] $end
     $var wire 32 5! data_memory[8] [31:0] $end
     $var wire 32 6! data_memory[9] [31:0] $end
     $var wire 32 7! data_memory[10] [31:0] $end
     $var wire 32 8! data_memory[11] [31:0] $end
     $var wire 32 9! data_memory[12] [31:0] $end
     $var wire 32 :! data_memory[13] [31:0] $end
     $var wire 32 ;! data_memory[14] [31:0] $end
     $var wire 32 <! data_memory[15] [31:0] $end
     $var wire 32 =! data_memory[16] [31:0] $end
     $var wire 32 >! data_memory[17] [31:0] $end
     $var wire 32 ?! data_memory[18] [31:0] $end
     $var wire 32 @! data_memory[19] [31:0] $end
     $var wire 32 A! data_memory[20] [31:0] $end
     $var wire 32 B! data_memory[21] [31:0] $end
     $var wire 32 C! data_memory[22] [31:0] $end
     $var wire 32 D! data_memory[23] [31:0] $end
     $var wire 32 E! data_memory[24] [31:0] $end
     $var wire 32 F! data_memory[25] [31:0] $end
     $var wire 32 G! data_memory[26] [31:0] $end
     $var wire 32 H! data_memory[27] [31:0] $end
     $var wire 32 I! data_memory[28] [31:0] $end
     $var wire 32 J! data_memory[29] [31:0] $end
     $var wire 32 K! data_memory[30] [31:0] $end
     $var wire 32 L! data_memory[31] [31:0] $end
    $upscope $end
   $upscope $end
   $scope module wb_top $end
    $var wire 32 M! WIDTH [31:0] $end
    $var wire 32 N mem_read_data [31:0] $end
    $var wire 32 O alu_result_out [31:0] $end
    $var wire 4 L wb_ctrl [3:0] $end
    $var wire 5 M wr_reg_dest_in [4:0] $end
    $var wire 5 M wr_reg_dest_out [4:0] $end
    $var wire 32 Q wr_data [31:0] $end
    $var wire 1 P RegWrite $end
    $var wire 32 ` tempMemData [31:0] $end
   $upscope $end
  $upscope $end
  $scope module unnamedblk1_1 $end
   $scope module unnamedblk1 $end
    $var wire 3 $ actual_format [2:0] $end
   $upscope $end
  $upscope $end
 $upscope $end
$enddefinitions $end


#0
b00000000000000000000000011001000 "
b00000000000000000000000000100000 #
b001 $
b00000 %
b00000 &
b0000 '
b0000 (
b00000000000000000000000000000000 )
0*
0+
0,
b00000000000000000000000000000000 -
b00000000000000000000000000000000 .
b00000 /
b00000 0
b00000 1
02
03
b00000 4
b00000 5
b00000 6
b00000 7
b00000 8
b0000 9
b0000 :
b00000000000000000000000000000000 ;
b00000000000000000000000000000000 <
b00000000000000000000000000000000 =
b00000000000000000000000000000000 >
b00000 ?
1@
0A
b00000000000000000000000000000000 B
b00000000000000000000000000000000 C
b00000 D
b0000 E
b0000 F
0G
b00000000000000000000000000000000 H
b00000000000000000000000000000000 I
b00000000000000000000000000000000 J
0K
b0000 L
b00000 M
b00000000000000000000000000000000 N
b00000000000000000000000000000000 O
0P
b00000000000000000000000000000000 Q
0R
b00 S
b00 T
b0010 U
b00000000000000000000000000000000 V
b00000000000000000000000000000000 W
b000000000000000000000000000000000 X
0Z
0[
0\
0]
0^
0_
b00000000000000000000000000000000 `
0a
1b
b00000000000000000000000000000100 c
b00000000000000000000000000000000 d
b00000000000000000000000000000000 e
b00000000000000000000000000000000 f
b00000000000000000000000000000000 g
b00000000000000000000000000000000 h
b00000000000000000000000000000000 i
b00000000000000000000000000000000 j
b00000000000000000000000000000000 k
b00000000000000000000000000000000 l
b00000000000000000000000000000000 m
b00000000000000000000000000000000 n
b00000000000000000000000000000000 o
b00000000000000000000000000000000 p
b00000000000000000000000000000000 q
b00000000000000000000000000000000 r
b00000000000000000000000000000000 s
b00000000000000000000000000000000 t
b00000000000000000000000000000000 u
b00000000000000000000000000000000 v
b00000000000000000000000000000000 w
b00000000000000000000000000000000 x
b00000000000000000000000000000000 y
b00000000000000000000000000000000 z
b00000000000000000000000000000000 {
b00000000000000000000000000000000 |
b00000000000000000000000000000000 }
b00000000000000000000000000000000 ~
b00000000000000000000000000000000 !!
b00000000000000000000000000000000 "!
b00000000000000000000000000000000 #!
b00000000000000000000000000000000 $!
b00000000000000000000000000000000 %!
b00000000000000000000000000000000 &!
b00000000000000000000000000000000 '!
b00000000000000000000000000000000 (!
b00000000000000000000000000000000 )!
b00000000000000000000000000000000 *!
b00000000000000000000000000100000 +!
b00000000000000000000000000000000 ,!
b00000000000000000000000000000000 -!
b00000000000000000000000000000000 .!
b00000000000000000000000000000000 /!
b00000000000000000000000000000000 0!
b00000000000000000000000000000000 1!
b00000000000000000000000000000000 2!
b00000000000000000000000000000000 3!
b00000000000000000000000000000000 4!
b00000000000000000000000000000000 5!
b00000000000000000000000000000000 6!
b00000000000000000000000000000000 7!
b00000000000000000000000000000000 8!
b00000000000000000000000000000000 9!
b00000000000000000000000000000000 :!
b00000000000000000000000000000000 ;!
b00000000000000000000000000000000 <!
b00000000000000000000000000000000 =!
b00000000000000000000000000000000 >!
b00000000000000000000000000000000 ?!
b00000000000000000000000000000000 @!
b00000000000000000000000000000000 A!
b00000000000000000000000000000000 B!
b00000000000000000000000000000000 C!
b00000000000000000000000000000000 D!
b00000000000000000000000000000000 E!
b00000000000000000000000000000000 F!
b00000000000000000000000000000000 G!
b00000000000000000000000000000000 H!
b00000000000000000000000000000000 I!
b00000000000000000000000000000000 J!
b00000000000000000000000000000000 K!
b00000000000000000000000000000000 L!
b00000000000000000000000000100000 M!
b00000000000000000000000000001010 N!
b00000000000000000000000011001000 O!
b0010 P!
b0011 Q!
b0110 R!
b1000 S!
b1111 T!
b1101 U!
b0101 V!
b0100 W!
b0000 X!
b0001 Y!
b1100 Z!
b0111 [!
b1001 \!
b1110 ]!
b1011 ^!
#5
1a
#10
b01100 &
b0010 (
1,
0a
0b
b10001111010100011000010010000001 d
#15
b10000 %
b00001 &
b0010 '
b1100 (
b11111111111111111000010010000001 )
b00000000000000000000000000000100 -
b10001111010100011000010010000001 .
b10001 /
b11010 0
b10010 1
b01100 8
b0010 :
1G
b1110 U
1a
b00000000000000000000000000001000 c
b00001000000000000000000011000000 d
b00000000000000000000000000000100 ,!
#20
0a
#25
b00000 %
b00000 &
b0000 '
b0000 (
b00000000000000000000000011000000 )
1*
b00000000000000000000000000001000 -
b00001000000000000000000011000000 .
b00000 /
b00000 0
b00011 1
b10001 4
b10000 5
b11010 6
b10010 7
b00001 8
b0010 9
b1100 :
b00000000000000000000000000000100 ;
b11111111111111111000010010000001 <
b10001 ?
0@
b11111111111111111000010010000001 B
b11111111111111100001001000001000 C
b0010 F
1R
b0010 U
b11111111111111111000010010000001 W
b111111111111111111000010010000001 X
1]
1a
b00000000000000000000000000001100 c
b00100101011011010001001110100011 d
b00000000000000000000001100000000 )!
b00000000000000000000000000001000 ,!
#30
0a
#35
b01100 &
b0010 (
b00000000000000000000000000000000 )
0*
b00000000000000000000000000000000 -
b00000000000000000000000000000000 .
b00000 1
b00000 4
b00000 5
b00000 6
b00000 7
b00000 8
b0000 9
b0000 :
b00000000000000000000000000000000 ;
b00000000000000000000000000000000 <
b00000 ?
1@
b00000000000000000000000000000000 B
b00000000000000000000000000000000 C
b0000 F
0G
b0010 L
1P
0R
b00000000000000000000000000000000 W
b000000000000000000000000000000000 X
0]
1a
b00000000000000000000001100000100 c
b11100001100011101011101000111000 d
b00000000000000000000000000000000 )!
b00000000000000000000001100000000 ,!
#40
0a
#45
b10111 %
b00001 &
b0010 '
b0000 (
b11111111111111111011101000111000 )
b00000000000000000000001100000100 -
b11100001100011101011101000111000 .
b01110 /
b01100 0
b01000 1
b01100 8
b0010 :
1G
b0000 L
0P
b1110 U
1a
b00000000000000000000001100001000 c
b00001000000000000000000010110010 d
b00000000000000000000001100000100 ,!
#50
0a
#55
b00000 %
b00000 &
b0000 '
b00000000000000000000000010110010 )
1*
b00000000000000000000001100001000 -
b00001000000000000000000010110010 .
b00000 /
b00000 0
b00010 1
b01110 4
b10111 5
b01100 6
b01000 7
b00001 8
b0010 9
b0000 :
b00000000000000000000001100000100 ;
b11111111111111111011101000111000 <
b01110 ?
0@
b11111111111111111011101000111000 B
b11111111111111101110101111100100 C
b0010 F
1R
b0010 U
b11111111111111111011101000111000 W
b111111111111111111011101000111000 X
1]
1a
b00000000000000000000001100001100 c
b00100011101000011101001000111101 d
b00000000000000000000001011001000 )!
b00000000000000000000001100001000 ,!
#60
0a
#65
b01100 &
b0010 (
b00000000000000000000000000000000 )
0*
b00000000000000000000000000000000 -
b00000000000000000000000000000000 .
b00000 1
b00000 4
b00000 5
b00000 6
b00000 7
b00000 8
b0000 9
b00000000000000000000000000000000 ;
b00000000000000000000000000000000 <
b00000 ?
1@
b00000000000000000000000000000000 B
b00000000000000000000000000000000 C
b0000 F
0G
b0010 L
1P
0R
b00000000000000000000000000000000 W
b000000000000000000000000000000000 X
0]
1a
b00000000000000000000001011001100 c
b10100101001111001001000010001000 d
b00000000000000000000000000000000 )!
b00000000000000000000001011001000 ,!
#70
0a
#75
b10010 %
b00001 &
b0010 '
b1000 (
b11111111111111111001000010001000 )
b00000000000000000000001011001100 -
b10100101001111001001000010001000 .
b11100 /
b01001 0
b00010 1
b01100 8
b0010 :
1G
b0000 L
0P
b1110 U
1a
b00000000000000000000001011010000 c
b00001000000000000000000011000000 d
b00000000000000000000001011001100 ,!
#80
0a
#85
b00000 %
b00000 &
b0000 '
b0000 (
b00000000000000000000000011000000 )
1*
b00000000000000000000001011010000 -
b00001000000000000000000011000000 .
b00000 /
b00000 0
b00011 1
b11100 4
b10010 5
b01001 6
b00010 7
b00001 8
b0010 9
b1000 :
b00000000000000000000001011001100 ;
b11111111111111111001000010001000 <
b11100 ?
0@
b11111111111111111001000010001000 B
b11111111111111100100010011101100 C
b0010 F
1R
b0010 U
b11111111111111111001000010001000 W
b111111111111111111001000010001000 X
1]
1a
b00000000000000000000001011010100 c
b10100100110011011100000111001111 d
b00000000000000000000001100000000 )!
b00000000000000000000001011010000 ,!
#90
0a
#95
b01100 &
b0010 (
b00000000000000000000000000000000 )
0*
b00000000000000000000000000000000 -
b00000000000000000000000000000000 .
b00000 1
b00000 4
b00000 5
b00000 6
b00000 7
b00000 8
b0000 9
b0000 :
b00000000000000000000000000000000 ;
b00000000000000000000000000000000 <
b00000 ?
1@
b00000000000000000000000000000000 B
b00000000000000000000000000000000 C
b0000 F
0G
b0010 L
1P
0R
b00000000000000000000000000000000 W
b000000000000000000000000000000000 X
0]
1a
b00000000000000000000001100000100 c
b11100001100011101011101000111000 d
b00000000000000000000000000000000 )!
b00000000000000000000001100000000 ,!
#100
0a
#105
b10111 %
b00001 &
b0010 '
b0000 (
b11111111111111111011101000111000 )
b00000000000000000000001100000100 -
b11100001100011101011101000111000 .
b01110 /
b01100 0
b01000 1
b01100 8
b0010 :
1G
b0000 L
0P
b1110 U
1a
b00000000000000000000001100001000 c
b00001000000000000000000010110010 d
b00000000000000000000001100000100 ,!
#110
0a
