vcd/tbCover_top.vcd
$version Generated by VerilatedVcd $end
$timescale 1ns $end
 $scope module tbCover_top $end
  $var wire 1 ] clk $end
  $var wire 1 ^ rst $end
  $var wire 32 J! WIDTH [31:0] $end
  $var wire 32 K! CLK_PERIOD [31:0] $end
  $var wire 32 L! MAX_INSTRUCTIONS [31:0] $end
  $var wire 32 " NUM_INSTRUCTIONS [31:0] $end
  $var wire 32 # i [31:0] $end
  $var wire 32 , if_pc_pp [31:0] $end
  $var wire 32 _ if_inst [31:0] $end
  $var wire 32 - if_id_pcIncr [31:0] $end
  $var wire 32 9 if_id_inst [31:0] $end
  $var wire 5 : id_regT [4:0] $end
  $var wire 5 ` id_regD [4:0] $end
  $var wire 5 ; id_regS [4:0] $end
  $var wire 5 % id_exCtrl [4:0] $end
  $var wire 4 & id_memCtrl [3:0] $end
  $var wire 4 ' id_wbCtrl [3:0] $end
  $var wire 32 - id_pcIncr [31:0] $end
  $var wire 32 a id_sgnExt [31:0] $end
  $var wire 32 b id_rdDataOne [31:0] $end
  $var wire 32 c id_rdDataTwo [31:0] $end
  $var wire 32 d reg_file_debug[0] [31:0] $end
  $var wire 32 e reg_file_debug[1] [31:0] $end
  $var wire 32 f reg_file_debug[2] [31:0] $end
  $var wire 32 g reg_file_debug[3] [31:0] $end
  $var wire 32 h reg_file_debug[4] [31:0] $end
  $var wire 32 i reg_file_debug[5] [31:0] $end
  $var wire 32 j reg_file_debug[6] [31:0] $end
  $var wire 32 k reg_file_debug[7] [31:0] $end
  $var wire 32 l reg_file_debug[8] [31:0] $end
  $var wire 32 m reg_file_debug[9] [31:0] $end
  $var wire 32 n reg_file_debug[10] [31:0] $end
  $var wire 32 o reg_file_debug[11] [31:0] $end
  $var wire 32 p reg_file_debug[12] [31:0] $end
  $var wire 32 q reg_file_debug[13] [31:0] $end
  $var wire 32 r reg_file_debug[14] [31:0] $end
  $var wire 32 s reg_file_debug[15] [31:0] $end
  $var wire 32 t reg_file_debug[16] [31:0] $end
  $var wire 32 u reg_file_debug[17] [31:0] $end
  $var wire 32 v reg_file_debug[18] [31:0] $end
  $var wire 32 w reg_file_debug[19] [31:0] $end
  $var wire 32 x reg_file_debug[20] [31:0] $end
  $var wire 32 y reg_file_debug[21] [31:0] $end
  $var wire 32 z reg_file_debug[22] [31:0] $end
  $var wire 32 { reg_file_debug[23] [31:0] $end
  $var wire 32 | reg_file_debug[24] [31:0] $end
  $var wire 32 } reg_file_debug[25] [31:0] $end
  $var wire 32 ~ reg_file_debug[26] [31:0] $end
  $var wire 32 !! reg_file_debug[27] [31:0] $end
  $var wire 32 "! reg_file_debug[28] [31:0] $end
  $var wire 32 #! reg_file_debug[29] [31:0] $end
  $var wire 32 $! reg_file_debug[30] [31:0] $end
  $var wire 32 %! reg_file_debug[31] [31:0] $end
  $var wire 1 ( id_stallIF $end
  $var wire 1 ) id_PCJmp $end
  $var wire 32 &! id_jump_addr [31:0] $end
  $var wire 5 < id_shamt_out [4:0] $end
  $var wire 1 = if_id_write $end
  $var wire 1 = PCWrite $end
  $var wire 5 > id_ex_regT [4:0] $end
  $var wire 5 ? id_ex_regD [4:0] $end
  $var wire 5 . id_ex_regS [4:0] $end
  $var wire 5 / id_ex_shamt_out [4:0] $end
  $var wire 5 @ id_ex_exCtrl [4:0] $end
  $var wire 4 A id_ex_memCtrl [3:0] $end
  $var wire 4 B id_ex_wbCtrl [3:0] $end
  $var wire 32 0 id_ex_pcIncr [31:0] $end
  $var wire 32 1 id_ex_sgnExt [31:0] $end
  $var wire 32 2 id_ex_rdDataOne [31:0] $end
  $var wire 32 C id_ex_rdDataTwo [31:0] $end
  $var wire 5 D ex_regDst [4:0] $end
  $var wire 4 A ex_memCtrl [3:0] $end
  $var wire 4 B ex_wbCtrl [3:0] $end
  $var wire 1 E ex_zeroFlag $end
  $var wire 1 F ex_overflowFlag $end
  $var wire 32 G ex_aluResult [31:0] $end
  $var wire 32 C ex_rdDataTwo [31:0] $end
  $var wire 32 3 ex_pcAdd [31:0] $end
  $var wire 5 H ex_mem_regDst [4:0] $end
  $var wire 4 I ex_mem_memCtrl [3:0] $end
  $var wire 4 J ex_mem_wbCtrl [3:0] $end
  $var wire 1 4 ex_mem_zeroFlag $end
  $var wire 32 K ex_mem_aluResult [31:0] $end
  $var wire 32 L ex_mem_rdDataTwo [31:0] $end
  $var wire 32 5 ex_mem_pcAdd [31:0] $end
  $var wire 1 '! mem_branchFlag $end
  $var wire 32 5 mem_branchAddr [31:0] $end
  $var wire 4 J mem_wbCtrl [3:0] $end
  $var wire 5 H mem_regDst [4:0] $end
  $var wire 32 (! mem_memReadData [31:0] $end
  $var wire 32 K mem_aluResult [31:0] $end
  $var wire 4 M mem_wb_wbCtrl [3:0] $end
  $var wire 5 N mem_wb_regDst [4:0] $end
  $var wire 32 6 mem_wb_memReadData [31:0] $end
  $var wire 32 7 mem_wb_aluResult [31:0] $end
  $var wire 1 O wb_regWrite $end
  $var wire 5 N wb_regDst [4:0] $end
  $var wire 32 P wb_regData [31:0] $end
  $scope module top_00 $end
   $var wire 32 J! WIDTH [31:0] $end
   $var wire 32 L! MAX_INSTRUCTIONS [31:0] $end
   $var wire 1 ] clk $end
   $var wire 1 ^ rst $end
   $var wire 32 , if_pc_pp [31:0] $end
   $var wire 32 _ if_inst [31:0] $end
   $var wire 32 - if_id_pcIncr [31:0] $end
   $var wire 32 9 if_id_inst [31:0] $end
   $var wire 5 : id_regT [4:0] $end
   $var wire 5 ` id_regD [4:0] $end
   $var wire 5 ; id_regS [4:0] $end
   $var wire 5 < id_shamt_out [4:0] $end
   $var wire 5 % id_exCtrl [4:0] $end
   $var wire 4 & id_memCtrl [3:0] $end
   $var wire 4 ' id_wbCtrl [3:0] $end
   $var wire 32 - id_pcIncr [31:0] $end
   $var wire 32 a id_sgnExt [31:0] $end
   $var wire 32 b id_rdDataOne [31:0] $end
   $var wire 32 c id_rdDataTwo [31:0] $end
   $var wire 32 &! jump_addr [31:0] $end
   $var wire 32 d reg_file_debug[0] [31:0] $end
   $var wire 32 e reg_file_debug[1] [31:0] $end
   $var wire 32 f reg_file_debug[2] [31:0] $end
   $var wire 32 g reg_file_debug[3] [31:0] $end
   $var wire 32 h reg_file_debug[4] [31:0] $end
   $var wire 32 i reg_file_debug[5] [31:0] $end
   $var wire 32 j reg_file_debug[6] [31:0] $end
   $var wire 32 k reg_file_debug[7] [31:0] $end
   $var wire 32 l reg_file_debug[8] [31:0] $end
   $var wire 32 m reg_file_debug[9] [31:0] $end
   $var wire 32 n reg_file_debug[10] [31:0] $end
   $var wire 32 o reg_file_debug[11] [31:0] $end
   $var wire 32 p reg_file_debug[12] [31:0] $end
   $var wire 32 q reg_file_debug[13] [31:0] $end
   $var wire 32 r reg_file_debug[14] [31:0] $end
   $var wire 32 s reg_file_debug[15] [31:0] $end
   $var wire 32 t reg_file_debug[16] [31:0] $end
   $var wire 32 u reg_file_debug[17] [31:0] $end
   $var wire 32 v reg_file_debug[18] [31:0] $end
   $var wire 32 w reg_file_debug[19] [31:0] $end
   $var wire 32 x reg_file_debug[20] [31:0] $end
   $var wire 32 y reg_file_debug[21] [31:0] $end
   $var wire 32 z reg_file_debug[22] [31:0] $end
   $var wire 32 { reg_file_debug[23] [31:0] $end
   $var wire 32 | reg_file_debug[24] [31:0] $end
   $var wire 32 } reg_file_debug[25] [31:0] $end
   $var wire 32 ~ reg_file_debug[26] [31:0] $end
   $var wire 32 !! reg_file_debug[27] [31:0] $end
   $var wire 32 "! reg_file_debug[28] [31:0] $end
   $var wire 32 #! reg_file_debug[29] [31:0] $end
   $var wire 32 $! reg_file_debug[30] [31:0] $end
   $var wire 32 %! reg_file_debug[31] [31:0] $end
   $var wire 1 ( id_stallIF $end
   $var wire 1 ) id_PCJmp $end
   $var wire 1 = PCWrite $end
   $var wire 1 = if_id_write $end
   $var wire 5 > id_ex_regT [4:0] $end
   $var wire 5 ? id_ex_regD [4:0] $end
   $var wire 5 . id_ex_regS [4:0] $end
   $var wire 5 / id_ex_shamt_out [4:0] $end
   $var wire 5 @ id_ex_exCtrl [4:0] $end
   $var wire 4 A id_ex_memCtrl [3:0] $end
   $var wire 4 B id_ex_wbCtrl [3:0] $end
   $var wire 32 0 id_ex_pcIncr [31:0] $end
   $var wire 32 1 id_ex_sgnExt [31:0] $end
   $var wire 32 2 id_ex_rdDataOne [31:0] $end
   $var wire 32 C id_ex_rdDataTwo [31:0] $end
   $var wire 5 D ex_regDst [4:0] $end
   $var wire 4 A ex_memCtrl [3:0] $end
   $var wire 4 B ex_wbCtrl [3:0] $end
   $var wire 1 E ex_zeroFlag $end
   $var wire 1 F ex_overflowFlag $end
   $var wire 32 G ex_aluResult [31:0] $end
   $var wire 32 C ex_rdDataTwo [31:0] $end
   $var wire 32 3 ex_pcAdd [31:0] $end
   $var wire 5 H ex_mem_regDst [4:0] $end
   $var wire 4 I ex_mem_memCtrl [3:0] $end
   $var wire 4 J ex_mem_wbCtrl [3:0] $end
   $var wire 1 4 ex_mem_zeroFlag $end
   $var wire 32 K ex_mem_aluResult [31:0] $end
   $var wire 32 L ex_mem_rdDataTwo [31:0] $end
   $var wire 32 5 ex_mem_pcAdd [31:0] $end
   $var wire 1 '! mem_branchFlag $end
   $var wire 32 5 mem_branchAddr [31:0] $end
   $var wire 4 J mem_wbCtrl [3:0] $end
   $var wire 5 H mem_regDst [4:0] $end
   $var wire 32 (! mem_memReadData [31:0] $end
   $var wire 32 K mem_aluResult [31:0] $end
   $var wire 4 M mem_wb_wbCtrl [3:0] $end
   $var wire 5 N mem_wb_regDst [4:0] $end
   $var wire 32 6 mem_wb_memReadData [31:0] $end
   $var wire 32 7 mem_wb_aluResult [31:0] $end
   $var wire 1 O wb_regWrite $end
   $var wire 5 N wb_regDst [4:0] $end
   $var wire 32 P wb_regData [31:0] $end
   $scope module ex_top $end
    $var wire 32 J! WIDTH [31:0] $end
    $var wire 5 @ ex_ctrl [4:0] $end
    $var wire 5 / shamt_out [4:0] $end
    $var wire 4 A mem_ctrl_in [3:0] $end
    $var wire 4 B wb_ctrl_in [3:0] $end
    $var wire 32 0 pc_incr_in [31:0] $end
    $var wire 32 1 sgn_extend_out [31:0] $end
    $var wire 32 2 rd_data_one [31:0] $end
    $var wire 32 C rd_data_two_in [31:0] $end
    $var wire 5 ? rd_out [4:0] $end
    $var wire 5 > rt_out [4:0] $end
    $var wire 5 . rs_out [4:0] $end
    $var wire 1 Q ex_mem_RegWrite $end
    $var wire 1 O mem_wb_RegWrite $end
    $var wire 5 H ex_mem_regRd [4:0] $end
    $var wire 5 N mem_wb_regRd [4:0] $end
    $var wire 32 K ex_mem_aluResult [31:0] $end
    $var wire 32 P wb_regData [31:0] $end
    $var wire 4 A mem_ctrl_out [3:0] $end
    $var wire 4 B wb_ctrl_out [3:0] $end
    $var wire 32 3 pc_slt_add [31:0] $end
    $var wire 32 G alu_result [31:0] $end
    $var wire 32 C rd_data_two_out [31:0] $end
    $var wire 1 E zero_flag $end
    $var wire 1 F overflow_flag $end
    $var wire 5 D reg_dst_mux [4:0] $end
    $var wire 4 M! ALU_ADD [3:0] $end
    $var wire 4 N! ALU_ADDU [3:0] $end
    $var wire 4 O! ALU_SUB [3:0] $end
    $var wire 4 P! ALU_SUBU [3:0] $end
    $var wire 4 Q! ALU_MULT [3:0] $end
    $var wire 4 R! ALU_MULTU [3:0] $end
    $var wire 4 S! ALU_DIV [3:0] $end
    $var wire 4 T! ALU_DIVU [3:0] $end
    $var wire 4 U! ALU_AND [3:0] $end
    $var wire 4 V! ALU_OR [3:0] $end
    $var wire 4 W! ALU_NOR [3:0] $end
    $var wire 4 X! ALU_SLT [3:0] $end
    $var wire 4 Y! ALU_SLTU [3:0] $end
    $var wire 4 Z! ALU_SLL [3:0] $end
    $var wire 4 [! ALU_SRL [3:0] $end
    $var wire 2 R forwardA [1:0] $end
    $var wire 2 S forwardB [1:0] $end
    $var wire 4 T alu_ctrl [3:0] $end
    $var wire 32 U alu_in_a [31:0] $end
    $var wire 32 V alu_in_b [31:0] $end
    $scope module alu_00 $end
     $var wire 32 J! WIDTH [31:0] $end
     $var wire 4 M! ALU_ADD [3:0] $end
     $var wire 4 N! ALU_ADDU [3:0] $end
     $var wire 4 O! ALU_SUB [3:0] $end
     $var wire 4 P! ALU_SUBU [3:0] $end
     $var wire 4 Q! ALU_MULT [3:0] $end
     $var wire 4 R! ALU_MULTU [3:0] $end
     $var wire 4 S! ALU_DIV [3:0] $end
     $var wire 4 T! ALU_DIVU [3:0] $end
     $var wire 4 U! ALU_AND [3:0] $end
     $var wire 4 V! ALU_OR [3:0] $end
     $var wire 4 W! ALU_NOR [3:0] $end
     $var wire 4 X! ALU_SLT [3:0] $end
     $var wire 4 Y! ALU_SLTU [3:0] $end
     $var wire 4 [! ALU_SRL [3:0] $end
     $var wire 4 Z! ALU_SLL [3:0] $end
     $var wire 32 U in_a [31:0] $end
     $var wire 32 V in_b [31:0] $end
     $var wire 4 T alu_opcode [3:0] $end
     $var wire 5 / shamt_out [4:0] $end
     $var wire 1 E zero_flag $end
     $var wire 1 F overflow_flag $end
     $var wire 32 G alu_result [31:0] $end
     $var wire 33 W result_extended [32:0] $end
    $upscope $end
    $scope module fwd_00 $end
     $var wire 5 . id_ex_regRs [4:0] $end
     $var wire 5 > id_ex_regRt [4:0] $end
     $var wire 5 H ex_mem_regRd [4:0] $end
     $var wire 5 N mem_wb_regRd [4:0] $end
     $var wire 1 Q ex_mem_RegWrite $end
     $var wire 1 O mem_wb_RegWrite $end
     $var wire 2 R forwardA [1:0] $end
     $var wire 2 S forwardB [1:0] $end
    $upscope $end
   $upscope $end
   $scope module id_top $end
    $var wire 32 J! WIDTH [31:0] $end
    $var wire 1 ] clk $end
    $var wire 1 ^ rst $end
    $var wire 32 9 if_out [31:0] $end
    $var wire 32 - pc_incr_in [31:0] $end
    $var wire 5 N wr_reg [4:0] $end
    $var wire 32 P wr_data [31:0] $end
    $var wire 1 O RegWrite $end
    $var wire 1 Y id_ex_MemRead $end
    $var wire 5 > id_ex_regRt [4:0] $end
    $var wire 5 % ex_ctrl [4:0] $end
    $var wire 4 & mem_ctrl [3:0] $end
    $var wire 4 ' wb_ctrl [3:0] $end
    $var wire 32 - pc_incr_out [31:0] $end
    $var wire 32 a sgn_extend_out [31:0] $end
    $var wire 32 &! jump_addr [31:0] $end
    $var wire 32 b rd_data_one [31:0] $end
    $var wire 32 c rd_data_two [31:0] $end
    $var wire 5 ` rd_out [4:0] $end
    $var wire 5 : rt_out [4:0] $end
    $var wire 5 ; rs_out [4:0] $end
    $var wire 32 d register_file[0] [31:0] $end
    $var wire 32 e register_file[1] [31:0] $end
    $var wire 32 f register_file[2] [31:0] $end
    $var wire 32 g register_file[3] [31:0] $end
    $var wire 32 h register_file[4] [31:0] $end
    $var wire 32 i register_file[5] [31:0] $end
    $var wire 32 j register_file[6] [31:0] $end
    $var wire 32 k register_file[7] [31:0] $end
    $var wire 32 l register_file[8] [31:0] $end
    $var wire 32 m register_file[9] [31:0] $end
    $var wire 32 n register_file[10] [31:0] $end
    $var wire 32 o register_file[11] [31:0] $end
    $var wire 32 p register_file[12] [31:0] $end
    $var wire 32 q register_file[13] [31:0] $end
    $var wire 32 r register_file[14] [31:0] $end
    $var wire 32 s register_file[15] [31:0] $end
    $var wire 32 t register_file[16] [31:0] $end
    $var wire 32 u register_file[17] [31:0] $end
    $var wire 32 v register_file[18] [31:0] $end
    $var wire 32 w register_file[19] [31:0] $end
    $var wire 32 x register_file[20] [31:0] $end
    $var wire 32 y register_file[21] [31:0] $end
    $var wire 32 z register_file[22] [31:0] $end
    $var wire 32 { register_file[23] [31:0] $end
    $var wire 32 | register_file[24] [31:0] $end
    $var wire 32 } register_file[25] [31:0] $end
    $var wire 32 ~ register_file[26] [31:0] $end
    $var wire 32 !! register_file[27] [31:0] $end
    $var wire 32 "! register_file[28] [31:0] $end
    $var wire 32 #! register_file[29] [31:0] $end
    $var wire 32 $! register_file[30] [31:0] $end
    $var wire 32 %! register_file[31] [31:0] $end
    $var wire 1 ( stallIF $end
    $var wire 1 ) PCJmp $end
    $var wire 5 < shamt_out [4:0] $end
    $var wire 1 = PCWrite $end
    $var wire 1 = if_id_write $end
    $var wire 1 = flushCtrlSignals $end
    $var wire 1 * linkReg $end
    $var wire 1 + signExtSel $end
    $var wire 32 )! i [31:0] $end
    $scope module hzd_00 $end
     $var wire 1 Y id_ex_MemRead $end
     $var wire 5 > id_ex_regRt [4:0] $end
     $var wire 5 ; if_id_regRs [4:0] $end
     $var wire 5 : if_id_regRt [4:0] $end
     $var wire 1 = PCWrite $end
     $var wire 1 = if_id_write $end
     $var wire 1 = flushCtrlSignals $end
    $upscope $end
   $upscope $end
   $scope module if_top $end
    $var wire 32 J! WIDTH [31:0] $end
    $var wire 32 L! MAX_INSTRUCTIONS [31:0] $end
    $var wire 1 ] clk $end
    $var wire 1 ^ rst $end
    $var wire 1 '! PCSrc $end
    $var wire 1 ) PCJmp $end
    $var wire 1 = PCWrite $end
    $var wire 32 5 pc_br [31:0] $end
    $var wire 32 &! jump_addr [31:0] $end
    $var wire 32 , pc_pp [31:0] $end
    $var wire 32 _ inst_mem_out [31:0] $end
    $var wire 32 8 pc [31:0] $end
   $upscope $end
   $scope module mem_top $end
    $var wire 32 J! WIDTH [31:0] $end
    $var wire 1 ] clk $end
    $var wire 1 ^ rst $end
    $var wire 1 4 zero_flag $end
    $var wire 4 I mem_ctrl [3:0] $end
    $var wire 4 J wb_ctrl_in [3:0] $end
    $var wire 32 K alu_result [31:0] $end
    $var wire 32 L rd_data_two_out [31:0] $end
    $var wire 32 5 pc_slt_add [31:0] $end
    $var wire 5 H reg_dst_mux [4:0] $end
    $var wire 1 '! branch_flag $end
    $var wire 32 (! mem_read_data [31:0] $end
    $var wire 32 5 branch_addr [31:0] $end
    $var wire 32 K alu_result_out [31:0] $end
    $var wire 4 J wb_ctrl_out [3:0] $end
    $var wire 5 H wr_reg_dest_out [4:0] $end
    $scope module dmem_00 $end
     $var wire 32 J! WIDTH [31:0] $end
     $var wire 1 ] clk $end
     $var wire 1 Z wr_en $end
     $var wire 1 [ rd_en $end
     $var wire 32 K addr [31:0] $end
     $var wire 32 L wr_data [31:0] $end
     $var wire 32 (! rd_data [31:0] $end
     $var wire 32 *! data_memory[0] [31:0] $end
     $var wire 32 +! data_memory[1] [31:0] $end
     $var wire 32 ,! data_memory[2] [31:0] $end
     $var wire 32 -! data_memory[3] [31:0] $end
     $var wire 32 .! data_memory[4] [31:0] $end
     $var wire 32 /! data_memory[5] [31:0] $end
     $var wire 32 0! data_memory[6] [31:0] $end
     $var wire 32 1! data_memory[7] [31:0] $end
     $var wire 32 2! data_memory[8] [31:0] $end
     $var wire 32 3! data_memory[9] [31:0] $end
     $var wire 32 4! data_memory[10] [31:0] $end
     $var wire 32 5! data_memory[11] [31:0] $end
     $var wire 32 6! data_memory[12] [31:0] $end
     $var wire 32 7! data_memory[13] [31:0] $end
     $var wire 32 8! data_memory[14] [31:0] $end
     $var wire 32 9! data_memory[15] [31:0] $end
     $var wire 32 :! data_memory[16] [31:0] $end
     $var wire 32 ;! data_memory[17] [31:0] $end
     $var wire 32 <! data_memory[18] [31:0] $end
     $var wire 32 =! data_memory[19] [31:0] $end
     $var wire 32 >! data_memory[20] [31:0] $end
     $var wire 32 ?! data_memory[21] [31:0] $end
     $var wire 32 @! data_memory[22] [31:0] $end
     $var wire 32 A! data_memory[23] [31:0] $end
     $var wire 32 B! data_memory[24] [31:0] $end
     $var wire 32 C! data_memory[25] [31:0] $end
     $var wire 32 D! data_memory[26] [31:0] $end
     $var wire 32 E! data_memory[27] [31:0] $end
     $var wire 32 F! data_memory[28] [31:0] $end
     $var wire 32 G! data_memory[29] [31:0] $end
     $var wire 32 H! data_memory[30] [31:0] $end
     $var wire 32 I! data_memory[31] [31:0] $end
    $upscope $end
   $upscope $end
   $scope module wb_top $end
    $var wire 32 J! WIDTH [31:0] $end
    $var wire 32 6 mem_read_data [31:0] $end
    $var wire 32 7 alu_result_out [31:0] $end
    $var wire 4 M wb_ctrl [3:0] $end
    $var wire 5 N wr_reg_dest_in [4:0] $end
    $var wire 5 N wr_reg_dest_out [4:0] $end
    $var wire 32 P wr_data [31:0] $end
    $var wire 1 O RegWrite $end
    $var wire 32 \ tempMemData [31:0] $end
   $upscope $end
  $upscope $end
  $scope module unnamedblk1_1 $end
   $scope module unnamedblk1 $end
    $var wire 3 $ actual_format [2:0] $end
   $upscope $end
  $upscope $end
 $upscope $end
$enddefinitions $end


#0
b00000000000000000000000011001000 "
b00000000000000000000000000100000 #
b001 $
b00000 %
b0000 &
b0000 '
0(
0)
0*
0+
b00000000000000000000000000000100 ,
b00000000000000000000000000000000 -
b00000 .
b00000 /
b00000000000000000000000000000000 0
b00000000000000000000000000000000 1
b00000000000000000000000000000000 2
b00000000000000000000000000000000 3
04
b00000000000000000000000000000000 5
b00000000000000000000000000000000 6
b00000000000000000000000000000000 7
b00000000000000000000000000000000 8
b00000000000000000000000000000000 9
b00000 :
b00000 ;
b00000 <
0=
b00000 >
b00000 ?
b00000 @
b0000 A
b0000 B
b00000000000000000000000000000000 C
b00000 D
1E
0F
b00000000000000000000000000000000 G
b00000 H
b0000 I
b0000 J
b00000000000000000000000000000000 K
b00000000000000000000000000000000 L
b0000 M
b00000 N
0O
b00000000000000000000000000000000 P
0Q
b00 R
b00 S
b0010 T
b00000000000000000000000000000000 U
b00000000000000000000000000000000 V
b000000000000000000000000000000000 W
0Y
0Z
0[
b00000000000000000000000000000000 \
0]
1^
b00000000000000000000000000000000 _
b00000 `
b00000000000000000000000000000000 a
b00000000000000000000000000000000 b
b00000000000000000000000000000000 c
b00000000000000000000000000000000 d
b00000000000000000000000000000001 e
b00000000000000000000000000000010 f
b00000000000000000000000000000011 g
b00000000000000000000000000000100 h
b00000000000000000000000000000101 i
b00000000000000000000000000000110 j
b00000000000000000000000000000111 k
b00000000000000000000000000001000 l
b00000000000000000000000000001001 m
b00000000000000000000000000001010 n
b00000000000000000000000000001011 o
b00000000000000000000000000001100 p
b00000000000000000000000000001101 q
b00000000000000000000000000001110 r
b00000000000000000000000000001111 s
b00000000000000000000000000010000 t
b00000000000000000000000000010001 u
b00000000000000000000000000010010 v
b00000000000000000000000000010011 w
b00000000000000000000000000010100 x
b00000000000000000000000000010101 y
b00000000000000000000000000010110 z
b00000000000000000000000000010111 {
b00000000000000000000000000011000 |
b00000000000000000000000000011001 }
b00000000000000000000000000011010 ~
b00000000000000000000000000011011 !!
b00000000000000000000000000011100 "!
b00000000000000000000000000011101 #!
b00000000000000000000000000011110 $!
b00000000000000000000000000011111 %!
b00000000000000000000000000000000 &!
0'!
b00000000000000000000000000000000 (!
b00000000000000000000000000100000 )!
b00000000000000000000000000000000 *!
b00000000000000000000000000000000 +!
b00000000000000000000000000000000 ,!
b00000000000000000000000000000000 -!
b00000000000000000000000000000000 .!
b00000000000000000000000000000000 /!
b00000000000000000000000000000000 0!
b00000000000000000000000000000000 1!
b00000000000000000000000000000000 2!
b00000000000000000000000000000000 3!
b00000000000000000000000000000000 4!
b00000000000000000000000000000000 5!
b00000000000000000000000000000000 6!
b00000000000000000000000000000000 7!
b00000000000000000000000000000000 8!
b00000000000000000000000000000000 9!
b00000000000000000000000000000000 :!
b00000000000000000000000000000000 ;!
b00000000000000000000000000000000 <!
b00000000000000000000000000000000 =!
b00000000000000000000000000000000 >!
b00000000000000000000000000000000 ?!
b00000000000000000000000000000000 @!
b00000000000000000000000000000000 A!
b00000000000000000000000000000000 B!
b00000000000000000000000000000000 C!
b00000000000000000000000000000000 D!
b00000000000000000000000000000000 E!
b00000000000000000000000000000000 F!
b00000000000000000000000000000000 G!
b00000000000000000000000000000000 H!
b00000000000000000000000000000000 I!
b00000000000000000000000000100000 J!
b00000000000000000000000000001010 K!
b00000000000000000000000011001000 L!
b0010 M!
b0011 N!
b0110 O!
b1000 P!
b1111 Q!
b1101 R!
b0101 S!
b0100 T!
b0000 U!
b0001 V!
b1100 W!
b0111 X!
b1001 Y!
b1110 Z!
b1011 [!
#5
1]
#10
b01100 %
b0010 '
1+
0]
0^
b10100111100111110001110111101000 _
#15
b00001 %
b0010 &
b1000 '
b00000000000000000000000000001000 ,
b00000000000000000000000000000100 -
14
b00000000000000000000000000000100 8
b10100111100111110001110111101000 9
b11111 :
b11100 ;
b10111 <
b01100 @
b0010 B
b1110 T
1]
b10001100001010000000000111011110 _
b00011 `
b00000000000000000001110111101000 a
b00000000000000000000000000011100 b
b00000000000000000000000000011111 c
b00000011100111110001110111101000 &!
#20
0]
#25
b1100 '
b00000000000000000000000000001100 ,
b00000000000000000000000000001000 -
b11100 .
b10111 /
b00000000000000000000000000000100 0
b00000000000000000001110111101000 1
b00000000000000000000000000011100 2
b00000000000000000111011110100100 3
b00000000000000000000000000001000 8
b10001100001010000000000111011110 9
b01000 :
b00001 ;
b00111 <
b11111 >
b00011 ?
b00001 @
b0010 A
b1000 B
b00000000000000000000000000011111 C
b11111 D
0E
b00000000000000000001111000000100 G
b0010 J
1Q
b0010 T
b00000000000000000000000000011100 U
b00000000000000000001110111101000 V
b000000000000000000001111000000100 W
1]
b00001000000000000000000011000000 _
b00000 `
b00000000000000000000000111011110 a
b00000000000000000000000000000001 b
b00000000000000000000000000001000 c
b00000000001010000000000111011110 &!
#30
0]
#35
b00000 %
b0000 &
b0000 '
1(
1)
b00000000000000000000000000010000 ,
b00000000000000000000000000001100 -
b00001 .
b00111 /
b00000000000000000000000000001000 0
b00000000000000000000000111011110 1
b00000000000000000000000000000001 2
b00000000000000000000011110000000 3
04
b00000000000000000111011110100100 5
b00000000000000000000000000001100 8
b00001000000000000000000011000000 9
b00000 :
b00000 ;
b00011 <
b01000 >
b00000 ?
b1100 B
b00000000000000000000000000001000 C
b01000 D
b00000000000000000000000111011111 G
b11111 H
b0010 I
b1000 J
b00000000000000000001111000000100 K
b00000000000000000000000000011111 L
b0010 M
1O
0Q
b00000000000000000000000000000001 U
b00000000000000000000000111011110 V
b000000000000000000000000111011111 W
1Z
1]
b10010000110011000100101010000110 _
b00000000000000000000000011000000 a
b00000000000000000000000000000000 b
b00000000000000000000000000000000 c
b00000000000000000000000011000000 &!
#40
0]
#45
b00001 %
b0001 &
b0111 '
0(
0)
b00000000000000000000000011000100 ,
b00000000000000000000000000010000 -
b00000 .
b00011 /
b00000000000000000000000000001100 0
b00000000000000000000000011000000 1
b00000000000000000000000000000000 2
b00000000000000000000001100001100 3
b00000000000000000000011110000000 5
b00000000000000000001111000000100 7
b00000000000000000000000011000000 8
b10010000110011000100101010000110 9
b01100 :
b00110 ;
b01010 <
b00000 >
b00000 @
b0000 A
b0000 B
b00000000000000000000000000000000 C
b00000 D
1E
b00000000000000000000000000000000 G
b01000 H
b1100 J
b00000000000000000000000111011111 K
b00000000000000000000000000001000 L
b1000 M
b11111 N
0O
b00000000000000000001111000000100 P
b00000000000000000000000000000000 U
b00000000000000000000000000000000 V
b000000000000000000000000000000000 W
b00000000000000000001111000000100 \
1]
b00101011010111001110000011011001 _
b01001 `
b00000000000000000100101010000110 a
b00000000000000000000000000000110 b
b00000000000000000000000000001100 c
b00000000110011000100101010000110 &!
b00000000000000000000000000011111 +!
#50
0]
#55
b11011 %
b0000 &
b0010 '
0+
b00000000000000000000000011001000 ,
b00000000000000000000000011000100 -
b00110 .
b01010 /
b00000000000000000000000000010000 0
b00000000000000000100101010000110 1
b00000000000000000000000000000110 2
b00000000000000010010101000101000 3
14
b00000000000000000000001100001100 5
b00000000000000000000000111011111 7
b00000000000000000000000011000100 8
b00101011010111001110000011011001 9
b11100 :
b11010 ;
b00011 <
b01100 >
b01001 ?
b00001 @
b0001 A
b0111 B
b00000000000000000000000000001100 C
b01100 D
0E
b00000000000000000100101010001100 G
b00000 H
b0000 I
b0000 J
b00000000000000000000000000000000 K
b00000000000000000000000000000000 L
b1100 M
b01000 N
b00000001110111110000000000000000 P
b00000000000000000000000000000110 U
b00000000000000000100101010000110 V
b000000000000000000100101010001100 W
1Y
0Z
b00000000000000000000000111011111 \
1]
b10010001010010100111110011100101 _
b11100 `
b00000000000000001110000011011001 a
b00000000000000000000000000011010 b
b00000000000000000000000000011100 c
b00000011010111001110000011011001 &!
b00000000000000000000000000001000 A!
#60
0]
#65
b00001 %
b0001 &
b0111 '
1+
b00000000000000000000000011001100 ,
b00000000000000000000000011001000 -
b11010 .
b00011 /
b00000000000000000000000011000100 0
b00000000000000001110000011011001 1
b00000000000000000000000000011010 2
b00000000000000111000010000101000 3
04
b00000000000000010010101000101000 5
b00000000000000000000000000000000 7
b00000000000000000000000011001000 8
b10010001010010100111110011100101 9
b01010 :
b01010 ;
b10011 <
b11100 >
b11100 ?
b11011 @
b0000 A
b0010 B
b00000000000000000000000000011100 C
b11100 D
b00000000000000000000000000000001 G
b01100 H
b0001 I
b0111 J
b00000000000000000100101010001100 K
b00000000000000000000000000001100 L
b0000 M
b00000 N
b00000000000000000000000000000000 P
1Q
b0111 T
b00000000000000000000000000011010 U
b00000000000000001110000011011001 V
b000000000000000000000000000000000 W
0Y
1[
b00000000000000000000000000000000 \
1]
b10100100000010010101100100010100 _
b01111 `
b00000000000000000111110011100101 a
b00000000000000000000000000001010 b
b00000000000000000000000000001010 c
b00000001010010100111110011100101 &!
#70
0]
