vcd/tbCover_top.vcd
$date
	Fri Jul 17 13:53:49 2026
$end
$version
	QuestaSim Version 2025.2_1
$end
$timescale
	1ns
$end

$scope module tbCover_top $end
$var reg 1 ! clk $end
$var reg 1 " rst $end
$var wire 1 # if_inst [31] $end
$var wire 1 $ if_inst [30] $end
$var wire 1 % if_inst [29] $end
$var wire 1 & if_inst [28] $end
$var wire 1 ' if_inst [27] $end
$var wire 1 ( if_inst [26] $end
$var wire 1 ) if_inst [25] $end
$var wire 1 * if_inst [24] $end
$var wire 1 + if_inst [23] $end
$var wire 1 , if_inst [22] $end
$var wire 1 - if_inst [21] $end
$var wire 1 . if_inst [20] $end
$var wire 1 / if_inst [19] $end
$var wire 1 0 if_inst [18] $end
$var wire 1 1 if_inst [17] $end
$var wire 1 2 if_inst [16] $end
$var wire 1 3 if_inst [15] $end
$var wire 1 4 if_inst [14] $end
$var wire 1 5 if_inst [13] $end
$var wire 1 6 if_inst [12] $end
$var wire 1 7 if_inst [11] $end
$var wire 1 8 if_inst [10] $end
$var wire 1 9 if_inst [9] $end
$var wire 1 : if_inst [8] $end
$var wire 1 ; if_inst [7] $end
$var wire 1 < if_inst [6] $end
$var wire 1 = if_inst [5] $end
$var wire 1 > if_inst [4] $end
$var wire 1 ? if_inst [3] $end
$var wire 1 @ if_inst [2] $end
$var wire 1 A if_inst [1] $end
$var wire 1 B if_inst [0] $end
$var wire 1 C id_exCtrl [4] $end
$var wire 1 D id_exCtrl [3] $end
$var wire 1 E id_exCtrl [2] $end
$var wire 1 F id_exCtrl [1] $end
$var wire 1 G id_exCtrl [0] $end
$var wire 1 H id_memCtrl [3] $end
$var wire 1 I id_memCtrl [2] $end
$var wire 1 J id_memCtrl [1] $end
$var wire 1 K id_memCtrl [0] $end
$var wire 1 L id_wbCtrl [3] $end
$var wire 1 M id_wbCtrl [2] $end
$var wire 1 N id_wbCtrl [1] $end
$var wire 1 O id_wbCtrl [0] $end
$var wire 1 P wb_regDst [4] $end
$var wire 1 Q wb_regDst [3] $end
$var wire 1 R wb_regDst [2] $end
$var wire 1 S wb_regDst [1] $end
$var wire 1 T wb_regDst [0] $end

$scope task write_r_type $end
$upscope $end

$scope task write_i_type $end
$upscope $end

$scope task write_j_type $end
$upscope $end

$scope module top_00 $end
$var reg 1 U id_PCJmp $end
$var reg 1 V PCWrite $end
$var reg 1 W if_id_write $end

$scope module if_top $end
$upscope $end

$scope module id_top $end

$scope module hzd_00 $end
$upscope $end
$upscope $end

$scope module ex_top $end

$scope module fwd_00 $end
$upscope $end

$scope module alu_00 $end
$upscope $end
$upscope $end

$scope module mem_top $end

$scope module dmem_00 $end
$upscope $end
$upscope $end

$scope module wb_top $end
$upscope $end
$upscope $end
$upscope $end
$enddefinitions $end
#0
$dumpvars
0!
1"
0U
0V
0W
0B
0A
0@
0?
0>
0=
0<
0;
0:
09
08
07
06
05
04
03
02
01
00
0/
0.
0-
0,
0+
0*
0)
0(
0'
0&
0%
0$
0#
0G
0F
0E
0D
0C
0K
0J
0I
0H
0O
0N
0M
0L
0T
0S
0R
0Q
0P
$end
#5
1!
#10
0"
0!
1B
1A
1?
1<
17
13
11
10
1/
1.
1,
1*
1)
1&
1N
1E
1D
#15
1!
0B
0?
1>
07
03
01
00
0/
0.
0,
0*
0)
1(
1'
0&
xO
0N
1I
0E
0D
#20
0!
#25
1!
1B
1?
0>
1:
19
16
15
14
1/
1-
0(
0'
1&
1U
0O
1N
0I
#30
0!
#35
1!
0A
1@
0?
1>
1;
09
17
06
04
11
1,
1*
1(
1'
0&
1#
0U
1E
1D
#40
0!
#45
1!
0B
1A
1=
0:
19
18
16
13
12
0/
1.
0-
1+
0*
1)
0'
1&
0#
0N
1M
1L
1J
1G
0E
0D
#50
0!
#55
1!
0>
0<
0;
1:
09
03
01
10
0.
1*
0(
0&
1%
1$
1#
0M
0L
0J
1I
1H
0G
#60
0!
#65
1!
1B
0A
1>
1<
19
08
05
13
02
11
1/
1.
0,
0*
0)
1J
0I
0H
1G
#70
0!
#75
1!
1S
1Q
0B
0@
1?
0>
0=
1;
0:
09
14
03
12
01
0/
1-
1*
1)
1(
1&
0%
0$
0#
#80
0!
#85
1!
1T
0Q
1P
1B
0<
19
07
15
04
13
02
0.
0-
1,
0+
1'
1%
0J
1I
1H
0G
#90
0!
#95
1!
0S
1R
0P
0B
0?
1<
0;
09
17
12
11
1.
0,
0)
0(
0'
0&
0%
1O
1N
1M
1L
1K
0I
0H
1G
#100
0!
#105
1!
0T
1S
1Q
1P
1B
1>
0<
1;
1:
19
06
14
03
02
01
1(
1&
0O
0M
0L
0K
0G
1E
1D
#110
0!
#115
1!
1T
0S
0Q
0B
1?
1<
09
04
13
12
00
0.
1+
0*
1)
0(
1%
0N
1I
1H
0E
0D
#120
0!
#125
1!
0T
0P
1B
1@
0?
0>
0;
19
14
03
02
1/
1*
0)
1(
0%
1N
0I
0H
1G
1F
1E
#130
0!
#135
1!
1T
1S
1P
1A
1;
09
07
05
04
13
10
1,
0+
1)
0(
0&
1%
1#
0N
1I
1H
0G
0F
0E
#140
0!
#145
1!
0T
0S
0B
0A
1>
1=
0<
0;
0:
03
00
0/
0,
0*
0)
1(
1'
0%
0#
1M
1J
0I
0H
1G
#150
0!
#155
1!
1T
0R
0P
0@
1?
1<
1:
18
17
15
14
11
10
1.
1-
1+
1*
1)
0'
1%
1U
1N
0M
0J
0G
#160
0!
#165
1!
0T
1Q
1A
1;
16
05
04
01
1/
0-
1,
0+
0(
1#
0U
1E
1D
#170
0!
#175
1!
0Q
0A
0?
0=
0;
0:
08
07
06
14
11
00
0.
1-
0)
1(
1&
0#
0N
1M
1J
1G
0E
0D
#180
0!
#185
1!
1A
0>
1=
1;
1:
19
13
01
10
0/
1.
0,
1+
0(
1'
0&
1N
0M
0J
1C
#190
0!
#195
1!
0A
1@
1?
0;
0:
18
15
12
1/
0.
0-
0+
0'
1&
0%
1#
1F
1D
#200
0!
#205
1!
1R
1Q
1P
1A
0@
0<
1;
1:
16
04
11
00
0/
1.
1+
1(
1'
0&
1%
1O
1M
1K
0F
0D
0C
#210
0!
#215
1!
1S
0R
0P
1B
0A
0?
1>
0=
1<
0:
08
06
05
03
02
10
1-
1,
0*
1)
0'
0#
0O
0N
0M
0K
1J
#220
0!
#225
1!
0S
1P
1A
1?
0>
0<
09
16
15
12
00
0,
0+
1'
0%
1#
1N
0J
#230
0!
#235
1!
1T
1R
0P
1@
0?
1>
1<
1:
18
06
14
13
02
10
1/
0-
1,
1*
0'
1&
1%
0#
0N
1M
1L
1J
#240
0!
#245
1!
1S
0R
0Q
1P
0A
1?
0>
19
08
17
16
05
04
03
00
0/
0.
1-
0,
1+
0)
1'
0&
1N
0M
0L
0J
1C
#250
0!
#255
1!
0T
1R
1A
0@
0?
1>
1=
0;
0:
09
07
06
01
0-
0+
0*
0(
0%
1E
1D
#260
0!
#265
1!
1T
0R
0B
1?
1(
1U
0N
0G
0E
0D
0C
#270
0!
#275
1!
0T
1R
1Q
1@
0>
0=
0<
1;
0(
0U
1N
1E
1D
#280
0!
#285
1!
0S
0R
0Q
0P
1B
0@
0?
0;
17
15
13
12
11
1/
1-
1,
1+
1*
1(
1%
1#
1U
0N
0E
0D
#290
0!
#295
1!
0A
1@
1?
1=
1<
1:
16
05
14
03
02
01
10
0/
0-
0+
1)
0(
0#
0U
1N
1E
1D
#300
0!
#305
1!
0B
1>
0=
0<
1;
19
18
07
06
15
04
12
00
1-
0,
0)
1G
1F
0E
1C
#310
0!
#315
1!
0@
0:
09
13
10
1,
1+
0*
1(
1&
#320
0!
#325
1!
1B
0>
08
05
03
02
00
0-
0,
0+
0(
0&
0%
1O
1M
1L
1K
0F
0D
0C
#330
0!
#335
1!
1T
1S
1Q
0B
1>
1<
0;
19
18
17
14
13
12
11
10
1.
1,
1)
1(
0'
1&
1%
1U
0O
0N
0M
0L
0K
0G
#340
0!
#345
1!
0T
0S
1R
0Q
1B
0>
1;
1:
09
16
15
04
03
02
00
0.
1-
0,
1*
0)
1'
0&
1#
0U
1N
1E
1D
#350
0!
#355
1!
0R
0?
1>
1=
0;
0:
05
14
13
1/
0-
1+
0*
1)
0'
1&
0%
0#
0N
1J
1G
0E
0D
#360
0!
#365
1!
0B
1@
0<
1:
08
06
15
04
03
12
01
1*
0(
1%
0J
1I
1H
0G
#370
0!
#375
1!
1A
0@
1?
0>
1<
1;
0:
19
14
1.
1,
0+
0)
1(
1'
0&
0%
1#
1N
0I
0H
1G
1F
1E
#380
0!
#385
1!
1S
0?
1>
0=
0;
09
07
16
10
0.
1-
1+
0(
0'
1%
0#
0N
1M
1L
1J
0F
0E
#390
0!
#395
1!
1Q
xB
xA
x@
x?
x>
x=
x<
x;
x:
x9
x8
x7
x6
x5
x4
x3
x2
x1
x0
x/
x.
x-
x,
x+
x*
x)
x(
x'
x&
x%
x$
x#
1N
0M
0L
0J
0G
1E
1D
#400
0!
#405
1!
0S
0Q
0N
0E
0D
#410
0!
#415
1!
#420
0!
#425
1!
#430
0!
#435
1!
xT
xS
xR
xQ
xP
